{"count":94,"next":"http://botmarketplace.ru/api/products/?page=2","previous":null,"results":[{"id":103,"user":20,"name":"Скрипт бота продажи цифровых товаров v1, Скрипт бота продажи цифровых товаров v1.","description":"Скрипт бота продажи цифровых товаров v1, Скрипт бота продажи цифровых товаров v1.","image_1":"http://botmarketplace.ru/media/products/20/bot_j7rTsO0.png","image_2":null,"image_3":null,"image_4":null,"video":"А зимних праздников блестящие тревоги?","article":"77ffb10f-bf8a-4ff5-8ca9-45894cde2f7c","price":250,"rating":[null,null],"category":[{"id":1,"name":"Автоматизация заказов"}],"is_favorited":false,"is_in_shopping_cart":false,"is_active":true,"created":"2023-10-09T02:49:53.643514+03:00","modified":null},{"id":102,"user":1,"name":"Бот 2","description":"Описание бота 2","image_1":"http://botmarketplace.ru/media/products/1/bot_RAG2v3a.png","image_2":null,"image_3":null,"image_4":null,"video":"https://youtube.be/","article":"1dc02520-b393-431f-b354-7dd83b718c00","price":1999,"rating":[null,null],"category":[{"id":1,"name":"Автоматизация заказов"}],"is_favorited":false,"is_in_shopping_cart":false,"is_active":true,"created":"2023-10-09T02:44:18.365693+03:00","modified":null},{"id":101,"user":20,"name":"October has already come — the grove shakes off the last leaves from its naked branches; The autumn chill has died — the road freezes.The stream still runs murmuring behind the mill123456890!№%;:?Г*","description":"The password must be complex! Ideally, it should consist of at least ten characters, among which there are numbers, large and small letters. And no sequences – everything is scattered. Example: Yn8kPi5bN7","image_1":"http://botmarketplace.ru/media/products/20/bot_Gvy2KOG.png","image_2":"http://botmarketplace.ru/media/products/20/bot_SxBfNT2.png","image_3":"http://botmarketplace.ru/media/products/20/bot_kAnikin.png","image_4":null,"video":"https://www.youtube.com/watch?v=Cj6jHmsnWiU&t=20s","article":"380fa84c-22f3-4758-b494-8c4cdc31a454","price":1000,"rating":[null,null],"category":[{"id":1,"name":"Автоматизация заказов"}],"is_favorited":false,"is_in_shopping_cart":false,"is_active":false,"created":"2023-10-09T01:22:21.420544+03:00","modified":"2023-10-09T02:44:29.442397+03:00"},{"id":99,"user":20,"name":"Скрипт бота продажи цифровых товаров v1, Скрипт бота продажи цифровых товаров v1.","description":"Скрипт бота продажи цифровых товаров v1, Скрипт бота продажи цифровых товаров v1.","image_1":null,"image_2":null,"image_3":null,"image_4":null,"video":"А зимних праздников блестящие тревоги?","article":"9dd3f8cb-d636-4a54-87ac-33d5089c0f27","price":250,"rating":[null,null],"category":[{"id":1,"name":"Автоматизация заказов"}],"is_favorited":false,"is_in_shopping_cart":false,"is_active":true,"created":"2023-10-09T00:51:14.224794+03:00","modified":null},{"id":98,"user":20,"name":"Скрипт бота продажи цифровых товаров v1, Скрипт бота продажи цифровых товаров v1.","description":"Скрипт бота продажи цифровых товаров v1, Скрипт бота продажи цифровых товаров v1.","image_1":null,"image_2":null,"image_3":null,"image_4":null,"video":"А зимних праздников блестящие тревоги?","article":"f48ddf04-9c3d-4041-bb42-dfca00d8e0d1","price":250,"rating":[null,null],"category":[],"is_favorited":false,"is_in_shopping_cart":false,"is_active":true,"created":"2023-10-09T00:47:16.805132+03:00","modified":null},{"id":97,"user":20,"name":"Скрипт бота продажи цифровых товаров v1, Скрипт бота продажи цифровых товаров v1.","description":"Скрипт бота продажи цифровых товаров v1, Скрипт бота продажи цифровых товаров v1.","image_1":null,"image_2":null,"image_3":null,"image_4":null,"video":"А зимних праздников блестящие тревоги?","article":"c5458d2c-40e7-4d39-aaf0-c362002d742d","price":250,"rating":[null,null],"category":[],"is_favorited":false,"is_in_shopping_cart":false,"is_active":true,"created":"2023-10-09T00:46:32.670927+03:00","modified":null},{"id":96,"user":20,"name":"Скрипт бота продажи цифровых товаров v1, Скрипт бота продажи цифровых товаров v1.","description":"Скрипт бота продажи цифровых товаров v1, Скрипт бота продажи цифровых товаров v1.","image_1":null,"image_2":null,"image_3":null,"image_4":null,"video":"А зимних праздников блестящие тревоги?","article":"e50c6319-814b-4456-a3d2-08ea59bec7ca","price":-250,"rating":[null,null],"category":[{"id":1,"name":"Автоматизация заказов"}],"is_favorited":false,"is_in_shopping_cart":false,"is_active":true,"created":"2023-10-09T00:21:36.135481+03:00","modified":null},{"id":95,"user":20,"name":"Скрипт бота продажи цифровых товаров v1, Скрипт бота продажи цифровых товаров v1.","description":"Скрипт бота продажи цифровых товаров v1, Скрипт бота продажи цифровых товаров v1.","image_1":null,"image_2":null,"image_3":null,"image_4":null,"video":"А зимних праздников блестящие тревоги?","article":"e860211d-3fd8-46c4-a2ab-84e32243ea79","price":250,"rating":[null,null],"category":[{"id":1,"name":"Автоматизация заказов"}],"is_favorited":false,"is_in_shopping_cart":false,"is_active":true,"created":"2023-10-09T00:14:59.846117+03:00","modified":null},{"id":94,"user":20,"name":"Скрипт бота продажи цифровых товаров v1, Скрипт бота продажи цифровых товаров v1.","description":"Скрипт бота продажи цифровых товаров v1, Скрипт бота продажи цифровых товаров v1.","image_1":null,"image_2":null,"image_3":null,"image_4":null,"video":"А зимних праздников блестящие тревоги?","article":"f73487de-d1ca-489b-97cf-5a6433ac9bed","price":250,"rating":[null,null],"category":[{"id":1,"name":"Автоматизация заказов"}],"is_favorited":false,"is_in_shopping_cart":false,"is_active":true,"created":"2023-10-09T00:02:58.550117+03:00","modified":null},{"id":93,"user":20,"name":"Скрипт бота продажи цифровых товаров v1, Скрипт бота продажи цифровых товаров v1.","description":"Скрипт бота продажи цифровых товаров v1, Скрипт бота продажи цифровых товаров v1.","image_1":"http://botmarketplace.ru/media/products/20/bot_9wudkng.jpeg","image_2":null,"image_3":null,"image_4":null,"video":"А зимних праздников блестящие тревоги?","article":"8cc1c588-a92f-47f8-8923-8492e8926bc7","price":250,"rating":[null,null],"category":[{"id":1,"name":"Автоматизация заказов"}],"is_favorited":false,"is_in_shopping_cart":false,"is_active":true,"created":"2023-10-09T00:01:01.079580+03:00","modified":null},{"id":92,"user":20,"name":"Скрипт бота продажи цифровых товаров v1, Скрипт бота продажи цифровых товаров v1.","description":"Пароль должен быть сложным! В идеале он должен состоять минимум из десяти знаков, среди которых есть цифры, большие и маленькие буквы. И никаких последовательностей – всё в разброс. Пример: Yn8kPi5bN7","image_1":"http://botmarketplace.ru/media/products/20/bot.jpeg","image_2":null,"image_3":null,"image_4":null,"video":"А зимних праздников блестящие тревоги?","article":"60fdb994-c61f-4a21-85b5-756997ef9fb6","price":250,"rating":[null,null],"category":[{"id":1,"name":"Автоматизация заказов"}],"is_favorited":false,"is_in_shopping_cart":false,"is_active":true,"created":"2023-10-08T23:57:12.398506+03:00","modified":null},{"id":91,"user":1,"name":"100","description":"Пароль должен быть сложным! В идеале он должен состоять минимум из десяти знаков, среди которых есть цифры, большие и маленькие буквы. И никаких последовательностей – всё в разброс. Пример: Yn8kPi5bN7","image_1":null,"image_2":null,"image_3":null,"image_4":null,"video":"А зимних праздников блестящие тревоги?","article":"a730f869-9ce7-40cd-a4ca-12fc01814391","price":250,"rating":[null,null],"category":[{"id":1,"name":"Автоматизация заказов"}],"is_favorited":false,"is_in_shopping_cart":false,"is_active":true,"created":"2023-10-07T20:38:24.206742+03:00","modified":null}]}